Stochastic Collision Risk Model • stochLAB
…
#> 
#> $sampled_pars$avoid_ext
#> # A tibble: 1 × 5
#>    mean      sd median pctl_2.5 pctl_97.5
#>   <dbl>   <dbl>  <dbl>    <dbl>     <dbl>
#> 1 0.960 0.00203  0.960    0.956     0.964
#> 
#> $sampled_pars$prop_crh
#> # A tibble: 1 × 5
#>     mean      sd median pctl_2.5 pctl_97.5
#>    <dbl>   <dbl>  <dbl>    <dbl>     <dbl>
#> 1 0.0605 0.00904 0.0601   0.0441    0.0800
#> 
#> $sampled_pars$gen_fhd
#> # A tibble: 500 × 6
#>    height   mean      sd median pctl_2.5 pctl_97.5
#>     <dbl>  <dbl>   <dbl>  <dbl>    <dbl>     <dbl>
#>  1      0 0.163  0.0188  0.166    0.109     0.187 
#>  2      1 0.136  0.0129  0.138    0.0967    0.152 
#>  3      2 0.114  0.00855 0.115    0.0863    0.124 
#>  4      3 0.0950 0.00530 0.0963   0.0769    0.100 
#>  5      4 0.0794 0.00296 0.0803   0.0686    0.0816
#>  6      5 0.0664 0.00146 0.0669   0.0606    0.0670
#>  7      6 0.0556 0.00116 0.0558   0.0530    0.0567
#>  8      7 0.0465 0.00166 0.0466   0.0439    0.0490
#>  9      8 0.0390 0.00216 0.0389   0.0357    0.0432
#> 10      9 0.0327 0.00250 0.0324   0.0290    0.0386
#> # … with 490 more rows
…
