Stochastic migration collision risk model — mig_stoch_crm • stochLAB
…
#> 
#> ℹ Data validation
#> ✔ Data validation [23ms]
#> 
#> ℹ Sampling data
#> ✔ Sampling data [62ms]
#> 
#> ℹ Running simulation...
#> ✔ Running simulation... [744ms]
#> 
#> ℹ Creating outputs
#> ✔ Creating outputs [19ms]
#> 
#> $collisions
#> # A tibble: 1,000 × 3
#>    PrBMigration PoBMigration OMigration
#>           <dbl>        <dbl>      <dbl>
#>  1        0.193        0.199      0.196
#>  2        0.200        0.206      0.202
#>  3        0.223        0.229      0.225
#>  4        0.187        0.193      0.190
#>  5        0.205        0.211      0.207
#>  6        0.268        0.276      0.272
#>  7        0.222        0.229      0.225
#>  8        0.173        0.178      0.175
#>  9        0.243        0.250      0.246
#> 10        0.376        0.387      0.381
#> # … with 990 more rows
#> 
#> $flux_rates
#> # A tibble: 1,000 × 3
#>    PrBMigration PoBMigration OMigration
#>           <dbl>        <dbl>      <dbl>
#>  1        4015.        4015.      4015.
#>  2        3959.        3959.      3959.
#>  3        4240.        4240.      4240.
#>  4        3946.        3946.      3946.
#>  5        4080.        4080.      4080.
#>  6        4028.        4028.      4028.
#>  7        4269.        4269.      4269.
#>  8        3899.        3899.      3899.
#>  9        3915.        3915.      3915.
#> 10        4145.        4145.      4145.
#> # … with 990 more rows
…
